%YAML 1.1
%TAG !u! tag:unity3d.com,2011:
--- !u!1045 &1
EditorBuildSettings:
  m_ObjectHideFlags: 0
  serializedVersion: 2
  m_Scenes:
  - enabled: 1
    path: Assets/Scenes/MainMenu/MainMenu.unity
    guid: 9fc0d4010bbf28b4594072e72b8655ab
  - enabled: 1
    path: Assets/Scenes/Credits/Credits.unity
    guid: 0999e82490c93894592edb0c44323fbb
  - enabled: 1
    path: Assets/Scenes/Brushing/Brushing.unity
    guid: ac80942146c77a64185f49fd97925aa0
  - enabled: 1
    path: Assets/Scenes/Dishes/Dishes.unity
    guid: 6c3455c80b1da9541a94fb57b07cc1ca
  - enabled: 1
    path: Assets/Scenes/Loading/BrushLoading/LoadingBrushing.unity
    guid: 1b3d9b96b2bc82141836e93574f44e3c
  - enabled: 1
    path: Assets/Scenes/Loading/DishLoading/LoadingDishes.unity
    guid: b5ea9acb72895404c9e87a3dd54212fa
  - enabled: 1
    path: Assets/Scenes/Final/FinalScoreScene.unity
    guid: d42290dada9c74b41a0789c696c62899
  m_configObjects: {}
